…
### What is an NA? - “Not Available/Missing Value”

TRUE = 1 FALSE = 0 NA

``` r
head(fin, 24)
```

    ## # A tibble: 24 x 11
    ##    ID    Name  Industry Inception Employees State City  Revenue Expenses  Profit
    ##    <fct> <chr> <chr>    <fct>         <dbl> <chr> <chr>   <dbl>    <dbl>   <dbl>
    ##  1 1     Over… Software 2006             25 TN    Fran…  9.68e6  1130700  8.55e6
    ##  2 2     Unim… IT Serv… 2009             36 PA    Newt…  1.40e7   804035  1.32e7
    ##  3 3     Gree… Retail   2012             NA SC    Gree…  9.75e6  1044375  8.70e6
    ##  4 4     Blac… IT Serv… 2011             66 CA    Oran…  1.54e7  4631808  1.07e7
    ##  5 5     Year… Software 2013             45 WI    Madi…  8.57e6  4374841  4.19e6
    ##  6 6     Indi… IT Serv… 2013             60 NJ    Mana…  1.28e7  4626275  8.18e6
    ##  7 7     Tres… Financi… 2009            116 MO    Clay…  5.39e6  2127984  3.26e6
    ##  8 8     Redn… Constru… 2013             73 NY    Wood… NA            NA NA     
    ##  9 9     Lamt… IT Serv… 2009             55 CA    San …  1.18e7  6482465  5.27e6
    ## 10 10    Stri… Financi… 2010             25 FL    Boca…  1.23e7   916455  1.14e7
    ## # … with 14 more rows, and 1 more variable: Growth <dbl>
…
