…
    ## 
    ## $UnknownHours
    ## # A tibble: 7 x 1
    ##   PosixTime          
    ##   <dttm>             
    ## 1 2016-09-01 00:00:00
    ## 2 2016-09-01 01:00:00
    ## 3 2016-09-01 02:00:00
    ## 4 2016-09-01 03:00:00
    ## 5 2016-09-01 04:00:00
    ## 6 2016-09-01 05:00:00
    ## 7 2016-09-01 06:00:00
    ## 
    ## $Data
    ## # A tibble: 720 x 4
    ##    PosixTime           Machine `Percent Idle` Utilization
    ##    <dttm>              <fct>            <dbl>       <dbl>
    ##  1 2016-09-01 00:00:00 RL1            NA           NA    
    ##  2 2016-09-01 01:00:00 RL1            NA           NA    
    ##  3 2016-09-01 02:00:00 RL1            NA           NA    
    ##  4 2016-09-01 03:00:00 RL1            NA           NA    
    ##  5 2016-09-01 04:00:00 RL1            NA           NA    
    ##  6 2016-09-01 05:00:00 RL1            NA           NA    
    ##  7 2016-09-01 06:00:00 RL1            NA           NA    
    ##  8 2016-09-01 07:00:00 RL1             0.0199       0.980
    ##  9 2016-09-01 08:00:00 RL1             0.0200       0.980
    ## 10 2016-09-01 09:00:00 RL1             0.0212       0.979
    ## # … with 710 more rows
    ## 
    ## $Plot
…
